^C:\USERS\LIANG\DESKTOP\HIGHTOSSACTCLIENT\QTCONTROLLERSHOW\MAINFRAME.H
C:\USERS\LIANG\DESKTOP\HIGHTOSSACTCLIENT\QTCONTROLLERSHOW\GENERATEDFILES\DEBUG\MOC_MAINFRAME.CPP
^C:\USERS\LIANG\DESKTOP\HIGHTOSSACTCLIENT\QTCONTROLLERSHOW\QTCONTROLLERSHOW.UI
C:\USERS\LIANG\DESKTOP\HIGHTOSSACTCLIENT\QTCONTROLLERSHOW\GENERATEDFILES\UI_QTCONTROLLERSHOW.H
^C:\USERS\LIANG\DESKTOP\HIGHTOSSACTCLIENT\QTCONTROLLERSHOW\ANALYTHREAD.H
C:\USERS\LIANG\DESKTOP\HIGHTOSSACTCLIENT\QTCONTROLLERSHOW\GENERATEDFILES\DEBUG\MOC_ANALYTHREAD.CPP
^C:\USERS\LIANG\DESKTOP\HIGHTOSSACTCLIENT\QTCONTROLLERSHOW\BUTTONWIDGET.H
C:\USERS\LIANG\DESKTOP\HIGHTOSSACTCLIENT\QTCONTROLLERSHOW\GENERATEDFILES\DEBUG\MOC_BUTTONWIDGET.CPP
^C:\USERS\LIANG\DESKTOP\HIGHTOSSACTCLIENT\QTCONTROLLERSHOW\CAMERALOGIN.H
C:\USERS\LIANG\DESKTOP\HIGHTOSSACTCLIENT\QTCONTROLLERSHOW\GENERATEDFILES\DEBUG\MOC_CAMERALOGIN.CPP
^C:\USERS\LIANG\DESKTOP\HIGHTOSSACTCLIENT\QTCONTROLLERSHOW\CCAMERA.H
C:\USERS\LIANG\DESKTOP\HIGHTOSSACTCLIENT\QTCONTROLLERSHOW\GENERATEDFILES\DEBUG\MOC_CCAMERA.CPP
^C:\USERS\LIANG\DESKTOP\HIGHTOSSACTCLIENT\QTCONTROLLERSHOW\CDBMANAGER.H
C:\USERS\LIANG\DESKTOP\HIGHTOSSACTCLIENT\QTCONTROLLERSHOW\GENERATEDFILES\DEBUG\MOC_CDBMANAGER.CPP
^C:\USERS\LIANG\DESKTOP\HIGHTOSSACTCLIENT\QTCONTROLLERSHOW\CSTITCHTHREAD.H
C:\USERS\LIANG\DESKTOP\HIGHTOSSACTCLIENT\QTCONTROLLERSHOW\GENERATEDFILES\DEBUG\MOC_CSTITCHTHREAD.CPP
^C:\USERS\LIANG\DESKTOP\HIGHTOSSACTCLIENT\QTCONTROLLERSHOW\SYSCONTROLLER.H
C:\USERS\LIANG\DESKTOP\HIGHTOSSACTCLIENT\QTCONTROLLERSHOW\GENERATEDFILES\DEBUG\MOC_SYSCONTROLLER.CPP
^C:\USERS\LIANG\DESKTOP\HIGHTOSSACTCLIENT\QTCONTROLLERSHOW\LOGINCAWIDGET.H
C:\USERS\LIANG\DESKTOP\HIGHTOSSACTCLIENT\QTCONTROLLERSHOW\GENERATEDFILES\DEBUG\MOC_LOGINCAWIDGET.CPP
^C:\USERS\LIANG\DESKTOP\HIGHTOSSACTCLIENT\QTCONTROLLERSHOW\MAINWIDGET.H
C:\USERS\LIANG\DESKTOP\HIGHTOSSACTCLIENT\QTCONTROLLERSHOW\GENERATEDFILES\DEBUG\MOC_MAINWIDGET.CPP
^C:\USERS\LIANG\DESKTOP\HIGHTOSSACTCLIENT\QTCONTROLLERSHOW\RAWUDPSERVER.H
C:\USERS\LIANG\DESKTOP\HIGHTOSSACTCLIENT\QTCONTROLLERSHOW\GENERATEDFILES\DEBUG\MOC_RAWUDPSERVER.CPP
^C:\USERS\LIANG\DESKTOP\HIGHTOSSACTCLIENT\QTCONTROLLERSHOW\QCLICKEDLABEL.H
C:\USERS\LIANG\DESKTOP\HIGHTOSSACTCLIENT\QTCONTROLLERSHOW\GENERATEDFILES\DEBUG\MOC_QCLICKEDLABEL.CPP
^C:\USERS\LIANG\DESKTOP\HIGHTOSSACTCLIENT\QTCONTROLLERSHOW\PLAYBACKWIDGET.H
C:\USERS\LIANG\DESKTOP\HIGHTOSSACTCLIENT\QTCONTROLLERSHOW\GENERATEDFILES\DEBUG\MOC_PLAYBACKWIDGET.CPP
^C:\USERS\LIANG\DESKTOP\HIGHTOSSACTCLIENT\QTCONTROLLERSHOW\SETPARAM.H
C:\USERS\LIANG\DESKTOP\HIGHTOSSACTCLIENT\QTCONTROLLERSHOW\GENERATEDFILES\DEBUG\MOC_SETPARAM.CPP
^C:\USERS\LIANG\DESKTOP\HIGHTOSSACTCLIENT\QTCONTROLLERSHOW\TCPCLIENT.H
C:\USERS\LIANG\DESKTOP\HIGHTOSSACTCLIENT\QTCONTROLLERSHOW\GENERATEDFILES\DEBUG\MOC_TCPCLIENT.CPP
^C:\USERS\LIANG\DESKTOP\HIGHTOSSACTCLIENT\QTCONTROLLERSHOW\TCPSERVER.H
C:\USERS\LIANG\DESKTOP\HIGHTOSSACTCLIENT\QTCONTROLLERSHOW\GENERATEDFILES\DEBUG\MOC_TCPSERVER.CPP
^C:\USERS\LIANG\DESKTOP\HIGHTOSSACTCLIENT\QTCONTROLLERSHOW\UDPCLIENT.H
C:\USERS\LIANG\DESKTOP\HIGHTOSSACTCLIENT\QTCONTROLLERSHOW\GENERATEDFILES\DEBUG\MOC_UDPCLIENT.CPP
^C:\USERS\LIANG\DESKTOP\HIGHTOSSACTCLIENT\QTCONTROLLERSHOW\UDPSERVER.H
C:\USERS\LIANG\DESKTOP\HIGHTOSSACTCLIENT\QTCONTROLLERSHOW\GENERATEDFILES\DEBUG\MOC_UDPSERVER.CPP
^C:\USERS\LIANG\DESKTOP\HIGHTOSSACTCLIENT\QTCONTROLLERSHOW\QTCONTROLLERSHOW.QRC
C:\USERS\LIANG\DESKTOP\HIGHTOSSACTCLIENT\QTCONTROLLERSHOW\GENERATEDFILES\QRC_QTCONTROLLERSHOW.CPP
^C:\USERS\LIANG\DESKTOP\HIGHTOSSACTCLIENT\QTCONTROLLERSHOW\BUTTONWIDGET.UI
C:\USERS\LIANG\DESKTOP\HIGHTOSSACTCLIENT\QTCONTROLLERSHOW\GENERATEDFILES\UI_BUTTONWIDGET.H
^C:\USERS\LIANG\DESKTOP\HIGHTOSSACTCLIENT\QTCONTROLLERSHOW\CAMERALOGIN.UI
C:\USERS\LIANG\DESKTOP\HIGHTOSSACTCLIENT\QTCONTROLLERSHOW\GENERATEDFILES\UI_CAMERALOGIN.H
^C:\USERS\LIANG\DESKTOP\HIGHTOSSACTCLIENT\QTCONTROLLERSHOW\SETPARAM.UI
C:\USERS\LIANG\DESKTOP\HIGHTOSSACTCLIENT\QTCONTROLLERSHOW\GENERATEDFILES\UI_SETPARAM.H
^C:\USERS\LIANG\DESKTOP\HIGHTOSSACTCLIENT\QTCONTROLLERSHOW\LOGINCAWIDGET.UI
C:\USERS\LIANG\DESKTOP\HIGHTOSSACTCLIENT\QTCONTROLLERSHOW\GENERATEDFILES\UI_LOGINCAWIDGET.H
^C:\USERS\LIANG\DESKTOP\HIGHTOSSACTCLIENT\QTCONTROLLERSHOW\PLAYBACKWIDGET.UI
C:\USERS\LIANG\DESKTOP\HIGHTOSSACTCLIENT\QTCONTROLLERSHOW\GENERATEDFILES\UI_PLAYBACKWIDGET.H
^C:\USERS\LIANG\DESKTOP\HIGHTOSSACTCLIENT\QTCONTROLLERSHOW\MAINWIDGET.UI
C:\USERS\LIANG\DESKTOP\HIGHTOSSACTCLIENT\QTCONTROLLERSHOW\GENERATEDFILES\UI_MAINWIDGET.H
